<?xml version="1.0" encoding="utf-8"?>
<!-- Generator: Adobe Illustrator 15.0.0, SVG Export Plug-In . SVG Version: 6.00 Build 0)  -->
<!DOCTYPE svg PUBLIC "-//W3C//DTD SVG 1.1//EN" "http://www.w3.org/Graphics/SVG/1.1/DTD/svg11.dtd">
<svg version="1.1" id="Layer_1" xmlns="http://www.w3.org/2000/svg" xmlns:xlink="http://www.w3.org/1999/xlink" x="0px" y="0px"
	 width="280px" height="45px" viewBox="50 15 280 45" enable-background="new 50 15 280 45" xml:space="preserve">
<g>
	<polygon fill="#E6E6E6" points="66.894,20.012 56.667,54.988 313.107,54.988 323.332,20.012 	"/>
	<g>
		<path fill="#414141" d="M129.238,45.347l1.551-0.167c0.665-0.055,0.914-0.388,1.135-1.329l3.324-14.622
			c0.221-0.942,0.027-1.274-0.609-1.33l-1.662-0.11l0.194-0.803h14.013l-1.052,4.625h-0.831c0.249-2.493,0.332-3.656-3.157-3.656
			h-3.351c-0.471,0-0.637,0.139-0.776,0.804l-1.578,6.896h3.628c2.437,0,2.742-0.443,3.462-2.354h0.831l-1.274,5.788h-0.831
			c0.111-1.8,0.028-2.381-2.409-2.381h-3.628l-1.413,6.064c-0.305,1.302-0.277,1.717,0.139,2.05c0.36,0.276,1.745,0.359,3.102,0.359
			c3.407,0,4.653-0.498,6.065-3.904h0.831l-1.412,4.874h-14.457L129.238,45.347z"/>
		<path fill="#414141" d="M154.52,32.247c2.077,0,3.572,1.052,3.572,2.465c0,0.914-1.107,1.551-1.772,1.551
			c-0.499,0-0.748-0.332-0.803-0.831c-0.167-1.661-0.776-2.216-1.662-2.216c-2.548,0-4.625,4.681-4.625,8.281
			c0,1.966,0.416,3.628,2.438,3.628c1.855,0,3.489-1.967,4.431-3.24l0.665,0.525c-1.911,3.186-4.265,4.071-6.314,4.071
			c-1.938,0-3.96-1.052-3.96-4.431C146.488,37.509,149.59,32.247,154.52,32.247z"/>
		<path fill="#414141" d="M166.647,32.247c2.243,0,4.957,1.024,4.957,4.847c0,1.495-0.471,3.849-1.745,5.843
			c-1.302,2.05-3.24,3.545-6.259,3.545c-3.49,0-5.096-2.049-5.096-5.013C158.505,39.087,160.083,32.247,166.647,32.247z
			 M163.684,45.513c3.794,0,5.234-7.423,5.234-9.389c0-1.717-0.609-2.908-2.299-2.908c-3.656,0-5.428,6.37-5.428,9.361
			C161.191,44.543,162.078,45.513,163.684,45.513z"/>
		<path fill="#414141" d="M176.393,35.155c0.249-0.887,0.249-1.274-0.416-1.33l-1.717-0.138l0.166-0.665l5.068-0.775l0.139,0.139
			l-1.8,6.037h0.083c1.662-3.24,4.542-6.176,7.201-6.176c2.271,0,2.604,1.828,1.966,4.016l-2.16,7.256
			c-0.249,0.886-0.277,1.523,0.277,1.523c0.776,0,1.994-1.967,2.493-2.936l0.665,0.388c-0.941,2.104-2.492,3.987-4.569,3.987
			c-1.496,0-1.855-1.163-1.413-2.714l2.382-8.114c0.305-1.08,0.055-1.966-0.914-1.966c-2.243,0-4.902,4.043-5.927,6.425
			c-0.72,1.717-1.19,3.212-1.994,6.037l-2.438,0.332L176.393,35.155z"/>
		<path fill="#414141" d="M198.074,32.247c2.242,0,4.957,1.024,4.957,4.847c0,1.495-0.471,3.849-1.744,5.843
			c-1.303,2.05-3.242,3.545-6.26,3.545c-3.49,0-5.096-2.049-5.096-5.013C189.932,39.087,191.51,32.247,198.074,32.247z
			 M195.109,45.513c3.795,0,5.234-7.423,5.234-9.389c0-1.717-0.609-2.908-2.299-2.908c-3.654,0-5.428,6.37-5.428,9.361
			C192.617,44.543,193.504,45.513,195.109,45.513z"/>
		<path fill="#414141" d="M207.764,35.155c0.221-0.887,0.277-1.274-0.389-1.33l-1.689-0.138l0.166-0.665l5.014-0.775l0.139,0.139
			l-1.744,5.732h0.082c1.912-3.489,4.486-5.871,7.035-5.871c1.938,0,2.492,1.468,1.662,4.126l-0.555,1.745h0.111
			c1.994-3.572,4.514-5.871,7.006-5.871c2.299,0,2.658,1.828,2.021,4.016l-2.133,7.256c-0.248,0.886-0.275,1.523,0.277,1.523
			c0.775,0,1.994-1.967,2.492-2.936l0.666,0.388c-0.941,2.104-2.492,3.987-4.516,3.987c-1.385,0-1.938-0.997-1.439-2.714
			l2.383-8.142c0.359-1.191-0.029-1.938-0.943-1.938c-2.326,0-4.846,3.987-5.871,6.342c-0.719,1.688-1.162,3.295-1.965,6.12
			l-2.41,0.332l0.721-2.714l2.049-7.754c0.443-1.718,0-2.326-0.832-2.326c-2.297,0-5.012,4.153-5.953,6.562
			c-0.582,1.468-1.025,3.074-1.828,5.899l-2.41,0.332L207.764,35.155z"/>
		<path fill="#414141" d="M232.822,35.1c0.25-0.97,0.166-1.219-0.582-1.274l-1.578-0.138l0.166-0.665l5.041-0.775l0.139,0.139
			l-3.02,11.133c-0.25,0.886-0.277,1.523,0.277,1.523c0.775,0,1.994-1.967,2.492-2.936l0.664,0.388
			c-0.941,2.104-2.492,3.987-4.486,3.987c-1.496,0-1.855-1.135-1.439-2.714L232.822,35.1z M235.812,27.262
			c0.832-0.858,1.303-1.136,1.773-1.136c0.416,0,1.08,0.638,1.08,1.191c0,0.581-0.721,1.053-1.551,1.495l-4.182,2.326l-0.416-0.554
			L235.812,27.262z"/>
		<path fill="#414141" d="M247.248,32.247c0.748,0,1.551,0.249,2.021,0.581l0.139-0.359h2.326l-2.936,11.05
			c-0.248,0.886-0.275,1.523,0.277,1.523c0.775,0,1.994-1.967,2.492-2.936l0.666,0.388c-0.941,2.104-2.492,3.987-4.598,3.987
			c-1.496,0-1.801-1.135-1.219-3.102l0.941-3.157h-0.055c-1.607,2.825-4.182,6.259-7.146,6.259c-1.883,0-2.658-1.634-2.658-3.295
			C237.5,39.53,240.658,32.247,247.248,32.247z M241.461,45.042c1.328,0,3.018-1.855,4.568-4.21
			c1.469-2.216,2.465-4.957,2.965-7.007c-0.416-0.388-1.025-0.609-1.689-0.609c-4.348,0-7.062,6.841-7.062,9.887
			C240.242,44.183,240.547,45.042,241.461,45.042z"/>
	</g>
</g>
</svg>
