<?xml version="1.0" encoding="utf-8"?>
<!-- Generator: Adobe Illustrator 16.0.0, SVG Export Plug-In . SVG Version: 6.00 Build 0)  -->
<!DOCTYPE svg PUBLIC "-//W3C//DTD SVG 1.1//EN" "http://www.w3.org/Graphics/SVG/1.1/DTD/svg11.dtd">
<svg version="1.1" id="Layer_1" xmlns="http://www.w3.org/2000/svg" xmlns:xlink="http://www.w3.org/1999/xlink" x="0px" y="0px"
	 width="280px" height="45px" viewBox="0 0 280 45" enable-background="new 0 0 280 45" xml:space="preserve">
<g>
	<polygon fill="#E5E5E5" points="16.894,5.012 6.667,39.988 263.107,39.988 273.332,5.012 	"/>
	<path fill="#424242" d="M238.959,13.311c-4.855,0-8.795,3.939-8.795,8.797c0,4.857,3.939,8.797,8.795,8.797
		c4.857,0,8.797-3.939,8.797-8.797C247.756,17.25,243.816,13.311,238.959,13.311z M237.598,26.166l-4.047-4.047l1.555-1.554
		l2.492,2.492l5.287-5.287l1.553,1.556L237.598,26.166z"/>
	<g>
		<path fill="#424242" d="M33.062,28.327l0.994-0.108c0.434-0.036,0.615-0.235,0.76-0.868l2.17-9.511
			c0.145-0.597,0.018-0.85-0.398-0.886l-1.066-0.091l0.126-0.524h4.883c3.381,0,3.941,1.628,3.941,2.911
			c0,1.79-1.519,3.056-3.725,3.363v0.036c1.646,0.452,1.682,1.682,1.663,3.128c-0.018,0.94,0.072,1.609,0.254,1.917
			c0.217,0.361,0.65,0.561,1.446,0.633l-0.163,0.524h-1.41c-1.157,0-1.7-0.488-1.826-1.393c-0.163-1.338-0.019-2.73-0.127-3.381
			c-0.072-0.397-0.271-0.705-0.578-0.886c-0.271-0.182-0.777-0.235-1.374-0.235h-1.085l-0.995,4.394
			c-0.145,0.615-0.036,0.85,0.398,0.886l1.066,0.091l-0.108,0.524h-4.954L33.062,28.327z M38.849,22.324
			c2.332,0,3.725-1.104,3.725-3.255c0-1.573-1.085-2.098-2.261-2.098c-1.374,0-1.428,0.163-1.555,0.688l-1.066,4.665H38.849z"/>
		<path fill="#424242" d="M46.348,21.836c0.994-1.229,2.333-2.062,3.96-2.062c1.482,0,2.242,0.85,2.242,1.809
			c0,0.506-0.127,1.103-0.76,1.735c-0.777,0.724-2.098,1.446-5.135,2.062c-0.019,0.127-0.019,0.199-0.019,0.289
			c0,1.429,0.38,2.514,1.646,2.514c1.356,0,2.333-1.212,2.983-2.062l0.416,0.361c-1.229,2.008-2.82,2.586-4.141,2.586
			c-1.049,0-2.694-0.434-2.694-2.965C44.847,24.584,45.39,23.011,46.348,21.836z M50.85,21.475c0-0.633-0.415-1.067-1.048-1.067
			c-1.447,0-2.803,2.17-3.11,4.357C49.747,24.114,50.85,22.74,50.85,21.475z"/>
		<path fill="#424242" d="M53.324,26.374c0.307,0,0.47,0.199,0.578,0.543c0.289,0.958,0.958,1.519,1.628,1.519
			c0.759,0,1.302-0.506,1.302-1.356c0-0.705-0.471-1.5-1.248-2.115c-0.94-0.76-1.591-1.591-1.591-2.531
			c0-1.465,1.085-2.658,2.929-2.658c1.609,0,2.297,0.85,2.297,1.41s-0.507,0.832-0.868,0.832c-0.271,0-0.416-0.145-0.506-0.361
			c-0.38-0.85-0.851-1.248-1.447-1.248c-0.669,0-1.121,0.597-1.121,1.176c0,0.506,0.199,1.103,1.284,1.988
			c1.211,0.995,1.663,1.772,1.663,2.767c0,1.483-1.175,2.73-3.128,2.73c-1.718,0-2.712-0.94-2.712-1.718
			C52.384,26.862,52.781,26.374,53.324,26.374z"/>
		<path fill="#424242" d="M60.644,20.281l3.291-0.507l0.09,0.091l-1.735,6.672c-0.271,1.049-0.127,1.591,0.452,1.591
			c1.501,0,3.074-2.404,3.869-4.23c0.471-1.104,0.76-2.062,1.284-3.906l1.609-0.217l-1.935,7.378
			c-0.146,0.561-0.146,0.976,0.234,0.976c0.507,0,1.302-1.302,1.664-1.916l0.434,0.271c-0.633,1.339-1.718,2.586-3.02,2.586
			c-0.958,0-1.176-0.741-0.832-1.953l0.597-2.061H66.61c-1.085,2.098-2.983,4.014-4.719,4.014c-1.447,0-1.592-1.175-1.212-2.622
			l1.248-4.773c0.145-0.561,0.162-0.831-0.271-0.867l-1.121-0.091L60.644,20.281z"/>
		<path fill="#424242" d="M73.82,17.298c0.182-0.706,0.091-0.832-0.361-0.887l-1.03-0.126l0.108-0.416l3.236-0.435l0.091,0.091
			l-2.911,11.627c-0.145,0.597-0.145,0.976,0.181,0.976c0.434,0,1.247-1.103,1.663-1.916l0.435,0.253
			c-0.579,1.356-1.682,2.604-2.947,2.604c-0.977,0-1.193-0.741-0.94-1.771L73.82,17.298z"/>
		<path fill="#424242" d="M78.483,20.679h-1.501l0.199-0.688h1.465l0.234-0.886l1.754-1.393l0.217,0.127l-0.614,2.151h2.296
			l-0.198,0.688h-2.261l-1.609,6.582c-0.108,0.452-0.108,0.867,0.271,0.867c0.561,0,1.482-1.211,1.898-1.916l0.398,0.307
			c-0.724,1.356-1.881,2.55-3.327,2.55c-0.904,0-1.121-0.741-0.851-1.771L78.483,20.679z"/>
		<path fill="#424242" d="M88.137,19.774c0.487,0,1.012,0.163,1.319,0.38l0.091-0.235h1.519l-1.917,7.215
			c-0.162,0.579-0.181,0.994,0.182,0.994c0.506,0,1.302-1.283,1.627-1.916l0.434,0.253c-0.614,1.374-1.627,2.604-3.001,2.604
			c-0.977,0-1.176-0.741-0.796-2.025l0.615-2.061h-0.036c-1.049,1.844-2.73,4.086-4.665,4.086c-1.23,0-1.736-1.066-1.736-2.151
			C81.771,24.53,83.833,19.774,88.137,19.774z M84.357,28.128c0.868,0,1.971-1.211,2.983-2.748c0.958-1.446,1.609-3.236,1.935-4.574
			c-0.271-0.254-0.669-0.398-1.103-0.398c-2.839,0-4.611,4.467-4.611,6.455C83.562,27.567,83.761,28.128,84.357,28.128z"/>
		<path fill="#424242" d="M97.986,19.774c0.615,0,1.176,0.127,1.52,0.308l0.036-0.036l0.687-2.911
			c0.145-0.579,0.108-0.705-0.325-0.741l-1.085-0.108l0.108-0.416l3.219-0.435l0.091,0.091l-2.857,11.608
			c-0.145,0.579-0.181,0.994,0.181,0.994c0.507,0,1.302-1.283,1.628-1.916l0.434,0.253c-0.614,1.374-1.627,2.604-2.947,2.604
			c-0.922,0.019-1.193-0.723-0.832-2.007l0.597-2.151h-0.036c-1.066,1.935-2.676,4.158-4.755,4.158
			c-1.465,0-1.809-1.211-1.809-2.387C91.839,24.494,93.773,19.774,97.986,19.774z M94.533,28.128c0.958,0,2.151-1.355,3.02-2.767
			c0.922-1.5,1.519-3.2,1.79-4.592c-0.217-0.199-0.687-0.362-1.247-0.362c-2.894,0-4.467,4.467-4.467,6.419
			C93.629,27.64,93.954,28.128,94.533,28.128z"/>
		<path fill="#424242" d="M107.801,19.774c1.465,0,3.236,0.669,3.236,3.164c0,0.977-0.308,2.514-1.139,3.815
			c-0.851,1.338-2.116,2.314-4.087,2.314c-2.278,0-3.327-1.338-3.327-3.272C102.484,24.241,103.516,19.774,107.801,19.774z
			 M105.866,28.436c2.477,0,3.417-4.846,3.417-6.13c0-1.121-0.397-1.898-1.501-1.898c-2.387,0-3.544,4.159-3.544,6.111
			C104.238,27.803,104.817,28.436,105.866,28.436z"/>
		<path fill="#424242" d="M112.408,26.374c0.307,0,0.47,0.199,0.578,0.543c0.289,0.958,0.958,1.519,1.628,1.519
			c0.759,0,1.302-0.506,1.302-1.356c0-0.705-0.471-1.5-1.248-2.115c-0.94-0.76-1.591-1.591-1.591-2.531
			c0-1.465,1.085-2.658,2.929-2.658c1.609,0,2.297,0.85,2.297,1.41s-0.507,0.832-0.868,0.832c-0.271,0-0.416-0.145-0.506-0.361
			c-0.38-0.85-0.851-1.248-1.447-1.248c-0.669,0-1.121,0.597-1.121,1.176c0,0.506,0.199,1.103,1.284,1.988
			c1.211,0.995,1.663,1.772,1.663,2.767c0,1.483-1.175,2.73-3.128,2.73c-1.718,0-2.712-0.94-2.712-1.718
			C111.468,26.862,111.865,26.374,112.408,26.374z"/>
		<path fill="#424242" d="M128.676,19.774c0.615,0,1.176,0.127,1.52,0.308l0.036-0.036l0.687-2.911
			c0.145-0.579,0.108-0.705-0.325-0.741l-1.085-0.108l0.108-0.416l3.219-0.435l0.091,0.091l-2.857,11.608
			c-0.145,0.579-0.181,0.994,0.181,0.994c0.507,0,1.302-1.283,1.628-1.916l0.434,0.253c-0.614,1.374-1.627,2.604-2.947,2.604
			c-0.922,0.019-1.193-0.723-0.832-2.007l0.597-2.151h-0.036c-1.066,1.935-2.676,4.158-4.755,4.158
			c-1.465,0-1.809-1.211-1.809-2.387C122.528,24.494,124.463,19.774,128.676,19.774z M125.223,28.128
			c0.958,0,2.151-1.355,3.02-2.767c0.922-1.5,1.519-3.2,1.79-4.592c-0.217-0.199-0.687-0.362-1.247-0.362
			c-2.894,0-4.467,4.467-4.467,6.419C124.318,27.64,124.644,28.128,125.223,28.128z"/>
		<path fill="#424242" d="M134.603,21.836c0.994-1.229,2.333-2.062,3.96-2.062c1.482,0,2.242,0.85,2.242,1.809
			c0,0.506-0.127,1.103-0.76,1.735c-0.777,0.724-2.098,1.446-5.135,2.062c-0.019,0.127-0.019,0.199-0.019,0.289
			c0,1.429,0.38,2.514,1.646,2.514c1.356,0,2.333-1.212,2.983-2.062l0.416,0.361c-1.229,2.008-2.82,2.586-4.141,2.586
			c-1.049,0-2.694-0.434-2.694-2.965C133.102,24.584,133.645,23.011,134.603,21.836z M139.104,21.475
			c0-0.633-0.415-1.067-1.048-1.067c-1.447,0-2.803,2.17-3.11,4.357C138.002,24.114,139.104,22.74,139.104,21.475z"/>
		<path fill="#424242" d="M147.688,17.298c0.163-0.706,0.091-0.832-0.361-0.887l-1.031-0.126l0.108-0.416l3.237-0.435l0.09,0.091
			l-2.007,7.974h0.036c1.393-2.477,3.183-3.725,4.557-3.725c1.338,0,1.935,0.94,1.935,2.278c0,0.813-0.289,2.423-1.193,4.015
			c-0.886,1.591-2.423,3.001-4.538,3.001c-1.031,0-1.953-0.506-2.278-1.266l-0.561,1.049h-0.651L147.688,17.298z M148.737,28.436
			c2.658,0,3.743-4.918,3.743-6.22c0-1.031-0.308-1.501-0.977-1.501c-1.121,0-2.478,1.555-3.291,3.002
			c-0.578,1.048-0.958,2.296-0.958,3.164C147.255,27.785,147.815,28.436,148.737,28.436z"/>
		<path fill="#424242" d="M155.857,20.281l3.291-0.507l0.09,0.091l-1.735,6.672c-0.271,1.049-0.127,1.591,0.452,1.591
			c1.501,0,3.074-2.404,3.869-4.23c0.471-1.104,0.76-2.062,1.284-3.906l1.609-0.217l-1.935,7.378
			c-0.146,0.561-0.146,0.976,0.234,0.976c0.507,0,1.302-1.302,1.664-1.916l0.434,0.271c-0.633,1.339-1.718,2.586-3.02,2.586
			c-0.958,0-1.176-0.741-0.832-1.953l0.597-2.061h-0.036c-1.085,2.098-2.983,4.014-4.719,4.014c-1.447,0-1.592-1.175-1.212-2.622
			l1.248-4.773c0.145-0.561,0.162-0.831-0.271-0.867l-1.121-0.091L155.857,20.281z M162.187,16.52
			c0.542-0.561,0.85-0.741,1.157-0.741c0.271,0,0.705,0.416,0.705,0.777c0,0.38-0.471,0.688-1.013,0.977l-2.73,1.52l-0.271-0.362
			L162.187,16.52z"/>
		<path fill="#424242" d="M166.376,26.374c0.307,0,0.47,0.199,0.578,0.543c0.289,0.958,0.958,1.519,1.628,1.519
			c0.759,0,1.302-0.506,1.302-1.356c0-0.705-0.471-1.5-1.248-2.115c-0.94-0.76-1.591-1.591-1.591-2.531
			c0-1.465,1.085-2.658,2.929-2.658c1.609,0,2.297,0.85,2.297,1.41s-0.507,0.832-0.868,0.832c-0.271,0-0.416-0.145-0.506-0.361
			c-0.38-0.85-0.851-1.248-1.447-1.248c-0.669,0-1.121,0.597-1.121,1.176c0,0.506,0.199,1.103,1.284,1.988
			c1.212,0.995,1.663,1.772,1.663,2.767c0,1.483-1.175,2.73-3.128,2.73c-1.718,0-2.712-0.94-2.712-1.718
			C165.436,26.862,165.833,26.374,166.376,26.374z"/>
		<path fill="#424242" d="M178.958,19.774c0.85,0,1.482,0.235,1.772,0.397l0.777-0.813h0.687l-3.218,13.507l-1.682,0.362l1.79-7.812
			h-0.055c-1.338,2.242-3.183,3.652-4.683,3.652c-0.887,0-1.718-0.578-1.718-2.151C172.63,24.439,174.456,19.774,178.958,19.774z
			 M175.287,28.128c0.742,0,1.754-0.795,2.749-2.097c0.977-1.303,1.771-3.165,2.206-5.244c-0.271-0.199-0.688-0.38-1.266-0.38
			c-3.002,0-4.557,4.448-4.557,6.221C174.42,27.478,174.637,28.128,175.287,28.128z"/>
		<path fill="#424242" d="M183.619,20.281l3.291-0.507l0.09,0.091l-1.735,6.672c-0.271,1.049-0.127,1.591,0.452,1.591
			c1.501,0,3.074-2.404,3.869-4.23c0.471-1.104,0.76-2.062,1.284-3.906l1.609-0.217l-1.935,7.378
			c-0.146,0.561-0.146,0.976,0.234,0.976c0.507,0,1.302-1.302,1.664-1.916l0.434,0.271c-0.633,1.339-1.718,2.586-3.02,2.586
			c-0.958,0-1.176-0.741-0.832-1.953l0.597-2.061h-0.036c-1.085,2.098-2.983,4.014-4.719,4.014c-1.447,0-1.592-1.175-1.212-2.622
			l1.248-4.773c0.145-0.561,0.162-0.831-0.271-0.867l-1.121-0.091L183.619,20.281z"/>
		<path fill="#424242" d="M195.168,21.836c0.994-1.229,2.333-2.062,3.96-2.062c1.482,0,2.242,0.85,2.242,1.809
			c0,0.506-0.127,1.103-0.76,1.735c-0.777,0.724-2.098,1.446-5.135,2.062c-0.019,0.127-0.019,0.199-0.019,0.289
			c0,1.429,0.38,2.514,1.646,2.514c1.356,0,2.333-1.212,2.983-2.062l0.416,0.361c-1.229,2.008-2.82,2.586-4.141,2.586
			c-1.049,0-2.694-0.434-2.694-2.965C193.667,24.584,194.21,23.011,195.168,21.836z M199.67,21.475c0-0.633-0.415-1.067-1.048-1.067
			c-1.447,0-2.803,2.17-3.11,4.357C198.567,24.114,199.67,22.74,199.67,21.475z"/>
		<path fill="#424242" d="M207.677,19.774c0.615,0,1.176,0.127,1.52,0.308l0.036-0.036l0.687-2.911
			c0.146-0.579,0.108-0.705-0.325-0.741l-1.085-0.108l0.108-0.416l3.219-0.435l0.091,0.091l-2.857,11.608
			c-0.145,0.579-0.181,0.994,0.181,0.994c0.507,0,1.302-1.283,1.628-1.916l0.434,0.253c-0.614,1.374-1.627,2.604-2.947,2.604
			c-0.922,0.019-1.193-0.723-0.832-2.007l0.597-2.151h-0.036c-1.066,1.935-2.676,4.158-4.755,4.158
			c-1.465,0-1.809-1.211-1.809-2.387C201.529,24.494,203.464,19.774,207.677,19.774z M204.224,28.128
			c0.958,0,2.151-1.355,3.02-2.767c0.922-1.5,1.519-3.2,1.79-4.592c-0.217-0.199-0.687-0.362-1.247-0.362
			c-2.894,0-4.467,4.467-4.467,6.419C203.319,27.64,203.645,28.128,204.224,28.128z"/>
		<path fill="#424242" d="M218.215,19.774c0.487,0,1.012,0.163,1.319,0.38l0.091-0.235h1.519l-1.917,7.215
			c-0.162,0.579-0.181,0.994,0.182,0.994c0.506,0,1.302-1.283,1.627-1.916l0.434,0.253c-0.614,1.374-1.627,2.604-3.001,2.604
			c-0.977,0-1.176-0.741-0.796-2.025l0.615-2.061h-0.036c-1.049,1.844-2.73,4.086-4.665,4.086c-1.23,0-1.736-1.066-1.736-2.151
			C211.85,24.53,213.911,19.774,218.215,19.774z M214.436,28.128c0.868,0,1.971-1.211,2.983-2.748
			c0.958-1.446,1.609-3.236,1.935-4.574c-0.271-0.254-0.669-0.398-1.103-0.398c-2.839,0-4.611,4.467-4.611,6.455
			C213.64,27.567,213.839,28.128,214.436,28.128z"/>
	</g>
</g>
</svg>
